{
    "extensionDescription": {
        "message": "Lassen Sie sich über ungelesene Artikel in Ihrer FreshRSS-Instanz benachrichtigen",
        "description": ""
    },
    "unreadCountId": {
        "message": "Sie haben $UNREAD$ ungelesene Artikel",
        "description": "",
        "placeholders": {
            "unread": {
                "content": "$1",
                "example": "1"
            }
        }
    },
    "zeroCountId": {
        "message": "keine",
        "description": ""
    },
    "errorId": {
        "message": "Fehler: $ERROR$",
        "description": "",
        "placeholders": {
            "error": {
                "content": "$1",
                "example": "User not found"
            }
        }
    },
    "updateErrorId": {
        "message": "Fehler $ERROR$ bei der Aktualisierung",
        "description": "",
        "placeholders": {
            "error": {
                "content": "$1",
                "example": "404"
            }
        }
    },
    "urlErrorId": {
        "message": "Die eingestellte URL ist ungültig. ",
        "description": ""
    },
    "authErrorId": {
        "message": "Authentifizierungsfehler",
        "description": ""
    },
    "UrlTitle": {
        "message": "URL der Installation von FreshRSS:",
        "description": ""
    },
    "LoginTitle": {
        "message": "Benutzer:",
        "description": ""
    },
    "PasswordTitle": {
        "message": "API Passwort:",
        "description": ""
    },
    "UpdateIntervalTitle": {
        "message": "Aktualisierungsintervall in Minuten (mindestens 10):",
        "description": ""
    },
    "BgColorTitle": {
        "message": "Hintergrundfarbe für die Anzahl ungelesener Nachrichten:",
        "description": ""
    },
    "SaveButtonTitle": {
        "message": "Optionen speichern",
        "description": ""
    },
    "UpdateNotificationMessage":
    {
        "message": "Die Erweiterung wurde auf Version $VERSION$ aktualisiert. Für weitere Details bitte klicken.",
        "description": "",
        "placeholders": {
            "version": {
                "content": "$1",
                "example": "0.0"
            }
        }
    },
    "InstallNotificationMessage":
    {
        "message": "Die Erweiterung wurde installiert und sollte konfiguriert werden. Bitte klicken um den Optionsdialog zu öffnen.",
        "description": ""
    }
}
